F:\Ramu\Maven\Maven\verification\src\main\java\de\webtogo\base\Base.java
F:\Ramu\Maven\Maven\verification\src\main\java\de\webtogo\util\WebEventListener.java
F:\Ramu\Maven\Maven\verification\src\main\java\de\webtogo\pages\MyPlatePage.java
F:\Ramu\Maven\Maven\verification\src\main\java\de\webtogo\pages\LoginPage.java
F:\Ramu\Maven\Maven\verification\src\main\java\de\webtogo\util\Helper.java
F:\Ramu\Maven\Maven\verification\src\main\java\de\webtogo\util\ReadPropertiesFile.java
F:\Ramu\Maven\Maven\verification\src\main\java\de\webtogo\util\BrowserFactory.java
F:\Ramu\Maven\Maven\verification\src\main\java\de\webtogo\util\ReadExcelData.java
